X1,Y1,X2,Y2
0.054210020110163626,0.707528197954009,0.06164203899623644,0.7816006528518551
0.422532132552238,0.7118052519600128,0.3960828888694543,0.7815277899215994
0.7582845151700575,0.7248039987176125,0.7648421788930619,0.7901620471568885
1.1617994229255881,0.7465025793477311,1.100813150301649,0.8053393955291307
1.431100813150298,0.7638731019206669,1.537772143044501,0.8270306898662237
1.667832473550753,0.7899653172451984,1.9082801433942418,0.853093760018653
1.9714523039258527,0.8160429599836788,2.1439188598408645,0.8682929672699717
2.174521290548217,0.8399638599865934,2.4138760164378734,0.8921992946868352
2.4116901285302053,0.8704132785404098,2.7509399318002927,0.9182696511322901
2.6818658739179817,0.8964982075719158,3.1212293433592695,0.9421541196700769
2.9529159744688265,0.931297543061992,3.492611698872077,0.9769315962810761
3.1896476348692815,0.9573897583865234,3.997333216752642,1.0073227244906882
3.5273673166040016,0.9899959196759058,4.434947975867795,1.035549823671709
3.8316429133514003,1.0226093672583139,4.804144443472932,1.048541284136283
4.1354813325172675,1.0508656116114365,5.206566407274632,1.059346856693189
4.5064265104485415,1.081285884993151,5.608332604704032,1.0636166244061673
4.809609163242104,1.1030063245023463,6.009661624551892,1.0635291888898606
5.145361545859924,1.1160050712599459,6.477660225583627,1.06124857917286
5.447014077118126,1.1224752994666434,6.878114890268424,1.0524467371979833
5.88178718195331,1.1223805776573113,7.37846463233365,1.0392658331147446
6.38191833522777,1.10702107195943,7.8119262044242355,1.0260995016175571
6.915056395908017,1.0872970767392383,8.312713124070992,1.0172758007636036
7.31419952784821,1.0654236250765061,8.813500043717756,1.00845209990965
7.679461397219548,1.0392002564775145,9.247835970971408,1.0040001748710328
8.078823117950513,1.0195054064294249,9.74927865699047,1.0017122788610067
8.411296668706829,0.9998251289673867,10.318046690565708,1.003767013494215
8.877983736993965,0.9844729095625312,10.920040220337501,1.0036358602197546
9.312101075456848,0.9778423829092712,11.321369240185362,1.0035484247034478
9.81419952784821,0.982090291743173,11.688379819882833,0.9947538690215968
10.283946839206084,0.9972384949433128,12.021727725802222,0.9837879980181286
10.754568505727025,1.0211011046020229,12.288187461746958,0.9728366996007114
11.192183264842178,1.0493282037830434,12.553991431319403,0.9553495963393666
11.596135350179239,1.0753839876424471,12.886464982075719,0.9356693188773281
11.932324910378593,1.0927399376293319,13.184401503890879,0.9051033196351026
12.301958555565268,1.110088601323191,13.416105622103697,0.8810876978228558
12.703287575413132,1.1100011658068842,13.713604966337329,0.8461644953513453
13.10352365130716,1.099020722217365,13.91164641077205,0.8199775582174815
13.402553117076156,1.079347731048352,14.176138847599894,0.7894188452682814
13.63447582407974,1.0575107108507478,14.439975518055434,0.7523243274751539
13.79951036110868,1.0356882632391946,14.637142607327096,0.7174229838827201
13.964107720556086,1.0095086123983563,14.868190959167613,0.6868715572265456
14.161274809827752,0.9746072688059224,15.098802133426595,0.6519629273410861
14.292428084287835,0.9484349042581098,15.262306548920169,0.6148902684270352
14.456588266153712,0.9178980501879865,15.526798985748012,0.5843315554778352
14.587085774241494,0.8851898807962463,15.723966075019671,0.5494302118854015
14.717801871120049,0.8546603130191485,16.02059106409023,0.5057926029553206
14.881524875404388,0.8197662557197403,16.25098364955845,0.4687053714552185
15.012240972282942,0.7892366879426423,16.3823555128093,0.4447116085220486
15.142082713998427,0.7499927137069746,16.679854857042926,0.4097884060505381
15.272580222086209,0.7172845443152344,16.911340386464982,0.38359418262364864
15.468217189822507,0.6671329894203026,17.10938183089971,0.357407245489785
15.663854157558802,0.6169814345253709,17.37321850135525,0.3203127276966571
15.793040132901982,0.5712016554457757,17.637492349392325,0.28757541313281476
15.92288187461747,0.5319576812101077,17.86854070123284,0.2570239864766404
16.020809652881,0.5079712045699631,18.199046952872255,0.21773629448281895
16.151962927341085,0.48179884002215045,18.4641951560724,0.19371338637754665
16.349130016612744,0.44689749642971655,18.76191308909679,0.16096878552067873
16.44487190696861,0.4011250036431466,19.09351228469004,0.13257410160006988
16.642257585031043,0.3684022616653553,19.52522514645449,0.10197895718574235
16.838987496721167,0.32914371484363625,19.957593774591242,0.07791961761534205
17.068724315817082,0.2855206784996067,20.323948587916412,0.06258925708956342
17.33190521990032,0.24189035586255137,20.723747486228906,0.04725161027075875
17.56251639415931,0.20698172597709186,21.224097228294138,0.03407070618752028
17.793346157209058,0.17425169770627513,21.72466555915013,0.023068403718923935
18.157077905045025,0.13277811780478577,22.22567106758765,0.016423304479613154
18.6209233190522,0.08910407740957726,22.593337413657427,0.014164553641689448
18.95339686980852,0.06942379994753889,23.027454752120317,0.007534026988429643
19.419428171723357,0.047535775698755556,23.99711462796188,0.005144122876045598
19.819445658826613,0.034376730494593666,25.03388126256886,0.004918247792253361
20.48701582582845,0.021159394946227428,26.10409198216316,0.004685086415435302
20.988021334265976,0.014514295706916203,27.073970446795496,0.004473783917694041
21.555915012678152,0.007854623881554224,28.144181166389796,0.004240622540876204
22.124464457462626,0.007730756900119706,29.14750371600945,0.004022033750109344
22.72623939844365,0.005421002011017029,30.15082626562911,0.0038034449593424835
23.328232928215446,0.0052898487365569125,,
24.064002797936528,0.005129550289994622,,
24.632333653930228,0.0028270816939175436,,
25.133994928740055,0.0027177872985340024,,
25.936652968435777,0.002542916265920514,,
26.67242283815686,0.0023826178193582237,,
27.40819270787794,0.0022223193727959334,,
28.244294832560985,0.002040162047156846,,
28.980064702282068,0.0018798636005945557,,
30.083500918072925,-0.0005391856838914411,,
